-------------------------------------------------------------------------------
Test set: config.functionalTest
-------------------------------------------------------------------------------
Tests run: 0, Failures: 0, Errors: 0, Skipped: 0, Time elapsed: 1.398 sec
