<?xml version="1.0" encoding="UTF-8"?>
<testng-results skipped="0" failed="0" ignored="0" total="1" passed="1">
  <reporter-output>
  </reporter-output>
  <suite name="test.testSearch" duration-ms="28005" started-at="2020-01-14T21:56:23Z" finished-at="2020-01-14T21:56:51Z">
    <groups>
    </groups>
    <test name="Command line test" duration-ms="28005" started-at="2020-01-14T21:56:23Z" finished-at="2020-01-14T21:56:51Z">
      <class name="test.testSearch">
        <test-method status="PASS" signature="consulta()[pri:0, instance:test.testSearch@3a03464]" name="consulta" duration-ms="27976" started-at="2020-01-14T21:56:23Z" finished-at="2020-01-14T21:56:51Z">
          <reporter-output>
          </reporter-output>
        </test-method> <!-- consulta -->
      </class> <!-- test.testSearch -->
    </test> <!-- Command line test -->
  </suite> <!-- test.testSearch -->
</testng-results>
